[
  "RE4CSO3_1920x1080.webp",
  "RE4NUR5_1920x1080.webp",
  "RE4NXlx_1920x1080.webp",
  "RE4NZVs_1920x1080.webp",
  "RE4O5f3_1920x1080.webp",
  "RE4Rj5f_1920x1080.webp",
  "RE4Rj5j_1920x1080.webp",
  "RE4RttH_1920x1080.webp",
  "RE4Rtuu_1920x1080.webp",
  "RE4Rw4B_1920x1080.webp",
  "RE4RyFP_1920x1080.webp",
  "RE4RyG5_1920x1080.webp",
  "RE4WUmL_1920x1080.webp",
  "RE4WUmj_1920x1080.webp",
  "RE4WWR9_1920x1080.webp",
  "RE4X4Dh_1920x1080.webp",
  "RE4XJ83_1920x1080.webp",
  "RE4XJ8I_1920x1080.webp",
  "RE4XLOL_1920x1080.webp",
  "RE4XTwM_1920x1080.webp",
  "RE4XYOh_1920x1080.webp",
  "RE4Xacx_1920x1080.webp",
  "RE4Xcvy_1920x1080.webp",
  "RE4Xfb6_1920x1080.webp",
  "RE4Y1n0_1920x1080.webp",
  "RE4Y1n5_1920x1080.webp",
  "RE4Y3X0_1920x1080.webp",
  "RE4Y3Xg_1920x1080.webp",
  "RE4ZSdY_1920x1080.webp",
  "RE50AaG_1920x1080.webp",
  "RE50CFL_1920x1080.webp",
  "RE50CG4_1920x1080.webp",
  "RE50CG6_1920x1080.webp",
  "RE50FeA_1920x1080.webp",
  "RE50Kx9_1920x1080.webp",
  "RE50n5W_1920x1080.webp",
  "RE50n7t_1920x1080.webp",
  "RE50pCH_1920x1080.webp",
  "RE50sf3_1920x1080.webp",
  "RE50sfB_1920x1080.webp",
  "RE50uRJ_1920x1080.webp",
  "RE50uS4_1920x1080.webp",
  "RE55B7D_1920x1080.webp",
  "RE55B7I_1920x1080.webp",
  "RE55B7Y_1920x1080.webp",
  "RE55DM5_1920x1080.webp",
  "RE55DMc_1920x1080.webp",
  "RE55DMv_1920x1080.webp",
  "RE55Gkg_1920x1080.webp",
  "RE55IND_1920x1080.webp",
  "RE55INJ_1920x1080.webp",
  "RE55INR_1920x1080.webp",
  "RE55LIg_1920x1080.webp",
  "RE55LIp_1920x1080.webp",
  "RE55Oh5_1920x1080.webp",
  "RE55Oho_1920x1080.webp",
  "RE55Qw4_1920x1080.webp",
  "RE55T1f_1920x1080.webp",
  "RE55vHh_1920x1080.webp",
  "RE55ypG_1920x1080.webp",
  "RE5bHoA_1920x1080.webp",
  "RE5bHoB_1920x1080.webp",
  "RE5bHoF_1920x1080.webp",
  "RE5bHoJ_1920x1080.webp",
  "RE5bMDV_1920x1080.webp",
  "RE5bME2_1920x1080.webp",
  "RE5bME7_1920x1080.webp",
  "RE5bME9_1920x1080.webp",
  "RE5bMEe_1920x1080.webp",
  "RE5bMFG_1920x1080.webp",
  "RE5bPf3_1920x1080.webp",
  "RE5bPfF_1920x1080.webp",
  "RE5bPfH_1920x1080.webp",
  "RE5bPfN_1920x1080.webp",
  "RE5bPfQ_1920x1080.webp",
  "RE5bPfk_1920x1080.webp",
  "RE5bUpP_1920x1080.webp",
  "RE5bUpY_1920x1080.webp",
  "RE5bUq3_1920x1080.webp",
  "RE5bUq6_1920x1080.webp",
  "RE5bUqo_1920x1080.webp",
  "RE5bX4H_1920x1080.webp",
  "RE5bX4d_1920x1080.webp",
  "RE5c2hX_1920x1080.webp",
  "RE5c4SC_1920x1080.webp",
  "RE5c4Sz_1920x1080.webp",
  "RE5c4T7_1920x1080.webp",
  "RE5c4T8_1920x1080.webp",
  "RE5c4Ta_1920x1080.webp",
  "RE5c4Td_1920x1080.webp",
  "RE5c4Tj_1920x1080.webp",
  "RE5c4Tk_1920x1080.webp",
  "RE5cBxV_1920x1080.webp",
  "RE5cBxd_1920x1080.webp",
  "RE5cDt0_1920x1080.webp",
  "RE5cFIU_1920x1080.webp",
  "RE5cFIv_1920x1080.webp",
  "RE5cFIy_1920x1080.webp",
  "RE5cIwD_1920x1080.webp",
  "RE5cLb5_1920x1080.webp",
  "RE5cLbT_1920x1080.webp",
  "RE5cLbf_1920x1080.webp",
  "RE5cLbs_1920x1080.webp",
  "RE5cLbx_1920x1080.webp",
  "RE5cLc1_1920x1080.webp",
  "RE5cLc8_1920x1080.webp",
  "RE5cNdJ_1920x1080.webp",
  "RE5cNdO_1920x1080.webp",
  "RE5cNdq_1920x1080.webp",
  "RE5cPX2_1920x1080.webp",
  "RE5cPXh_1920x1080.webp",
  "RE5cSvU_1920x1080.webp",
  "RE5cSwU_1920x1080.webp",
  "RE5cSwW_1920x1080.webp",
  "RE5cSwe_1920x1080.webp",
  "RE5cSwx_1920x1080.webp",
  "RE5cUW5_1920x1080.webp",
  "RE5czne_1920x1080.webp",
  "RE5cznh_1920x1080.webp",
  "RE5czo8_1920x1080.webp",
  "RW119di_1920x1080.webp",
  "RW119dl_1920x1080.webp",
  "RW119dp_1920x1080.webp",
  "RW11bQO_1920x1080.webp",
  "RW11esr_1920x1080.webp",
  "RW11esv_1920x1080.webp",
  "RW11h3n_1920x1080.webp",
  "RW11jDs_1920x1080.webp",
  "RW11jDz_1920x1080.webp",
  "RW11oQS_1920x1080.webp",
  "RW11oQY_1920x1080.webp",
  "RW11rrD_1920x1080.webp",
  "RW11rrU_1920x1080.webp",
  "RW11rrn_1920x1080.webp",
  "RW11u45_1920x1080.webp",
  "RW11u48_1920x1080.webp",
  "RW11u49_1920x1080.webp",
  "RW11u4G_1920x1080.webp",
  "RW11u4p_1920x1080.webp",
  "RW13NEp_1920x1080.webp",
  "RW13SNS_1920x1080.webp",
  "RW13Vnq_1920x1080.webp",
  "RW13Y9r_1920x1080.webp",
  "RW143hO_1920x1080.webp",
  "RWEBaQ_1920x1080.webp",
  "RWEwqt_1920x1080.webp",
  "RWHg6F_1920x1080.webp",
  "RWHiHK_1920x1080.webp",
  "RWHnUM_1920x1080.webp",
  "RWHqw8_1920x1080.webp",
  "RWHt7o_1920x1080.webp",
  "RWMYIP_1920x1080.webp",
  "RWMYIW_1920x1080.webp",
  "RWMYJx_1920x1080.webp",
  "RWN1pY_1920x1080.webp",
  "RWN1pi_1920x1080.webp",
  "RWN1q1_1920x1080.webp",
  "RWN3TF_1920x1080.webp",
  "RWN3TL_1920x1080.webp",
  "RWN3TT_1920x1080.webp",
  "RWN6Da_1920x1080.webp",
  "RWNeuE_1920x1080.webp",
  "RWNeuL_1920x1080.webp",
  "RWWAMA_1920x1080.webp",
  "RWWAME_1920x1080.webp",
  "RWWAMX_1920x1080.webp",
  "RWWAQB_1920x1080.webp",
  "RWWDQC_1920x1080.webp",
  "RWWGp8_1920x1080.webp",
  "RWWGpB_1920x1080.webp",
  "RWWGpe_1920x1080.webp",
  "RWWICw_1920x1080.webp",
  "RWWIz2_1920x1080.webp",
  "RWWIzS_1920x1080.webp",
  "RWWIzb_1920x1080.webp",
  "RWWIzh_1920x1080.webp",
  "RWWLA9_1920x1080.webp",
  "RWWLAH_1920x1080.webp",
  "RWWLAq_1920x1080.webp",
  "RWWOnY_1920x1080.webp",
  "RWWQv5_1920x1080.webp",
  "RWWQvu_1920x1080.webp",
  "RWWT3V_1920x1080.webp",
  "RWWT4o_1920x1080.webp",
  "RWWWsy_1920x1080.webp",
  "RWWWtc_1920x1080.webp",
  "RWWYpA_1920x1080.webp",
  "RWWYpD_1920x1080.webp",
  "RWWYpZ_1920x1080.webp",
  "RWWYpg_1920x1080.webp",
  "RWWYpu_1920x1080.webp",
  "RWWYq5_1920x1080.webp"
]
